[
    {
      "name": "Pants",
      "brand": "Zara",
      "imageUrl": "https://static.zara.net/photos///2019/V/0/1/p/6164/159/250/2/w/1024/6164159250_1_1_1.jpg?ts=1557852268668",
      "price": "70",
      "information": "This white t-shirt is awesome and very cheap",
      "color":"white",
      "sellerId":"xxx",
      "size": "M",
      "gender": "female"
    },
    {
      "name": "Pants",
      "brand": "Zara",
      "imageUrl": "https://static.zara.net/photos///2019/V/0/1/p/4387/048/600/3/w/1024/4387048600_1_1_1.jpg?ts=1557507556647",
      "price": "75",
      "information": "Batman",
      "color":"red",
      "sellerId":"xxx",
      "size": "L",
      "gender": "female"
    },
    {
      "name": "Pants",
      "brand": "Zara",
      "imageUrl": "https://static.zara.net/photos///2019/V/0/1/p/8527/042/505/2/w/1024/8527042505_1_1_1.jpg?ts=1557239728827",
      "price": "70",
      "information": "t-shirt",
      "color":"olive",
      "sellerId":"xxx",
      "size": "M",
      "gender": "female"
    },
    {
      "name": "Pants",
      "brand": "Zara",
      "imageUrl": "https://static.zara.net/photos///2019/V/0/1/p/3564/023/613/2/w/1024/3564023613_1_1_1.jpg?ts=1557481914203",
      "price": "75",
      "information": "t-shirt",
      "color":"rose",
      "sellerId":"xxx",
      "size": "M",
      "gender": "female"
    },
    {
      "name": "Pants",
      "brand": "Zara",
      "imageUrl": "https://static.zara.net/photos///2019/V/0/1/p/3025/588/712/2/w/1920/3025588712_9_2_1.jpg?ts=1557155796024",
      "price": "80",
      "information": "t-shirt",
      "color":"white",
      "sellerId":"xxx",
      "size": "L",
      "gender": "female"
    },
    {
      "name": "Dress",
      "brand": "Zara",
      "imageUrl": "https://static.zara.net/photos///2019/V/0/1/p/2157/062/251/3/w/1024/2157062251_1_1_1.jpg?ts=1557496545488",
      "price": "5",
      "information": "t-shirt",
      "color":"white",
      "sellerId":"xxx",
      "size" :"M",
      "gender": "female"
    },
    {
      "name": "Dress",
      "brand": "Zara",
      "imageUrl": "https://static.zara.net/photos///2019/V/0/1/p/2878/171/942/2/w/1024/2878171942_2_1_1.jpg?ts=1557329701647",
      "price": "100",
      "information": "t-shirt",
      "color":"cream",
      "sellerId":"xxx",
      "size": "S",
      "gender": "female"
    },
    {
      "name": "Dress",
      "brand": "Zara",
      "imageUrl": "https://static.zara.net/photos///2019/V/0/1/p/1067/007/251/2/w/1024/1067007251_1_1_1.jpg?ts=1557332658240",
      "price": "95",
      "information": "t-shirt",
      "color":"white",
      "sellerId":"xxx",
      "size": "L",
      "gender": "female"
    },
    {
      "name": "Dress",
      "brand": "Zara",
      "imageUrl": "https://static.zara.net/photos///2019/V/0/1/p/9878/076/080/2/w/1024/9878076080_2_1_1.jpg?ts=1557240600563",
      "price": "110",
      "information": "t-shirt",
      "color":"blue",
      "sellerId":"xxx",
      "size": "M",
      "gender": "female"
    },
    {
      "name": "Dress",
      "brand": "Zara",
      "imageUrl": "https://static.zara.net/photos///2019/V/0/1/p/4786/042/400/2/w/1024/4786042400_1_1_1.jpg? ts=1552494328357",
      "price": "5",
      "information": "t-shirt",
      "color":"red",
      "sellerId":"xxx",
      "size": "XL",
      "gender": "female"
    },
    {
      "name": "Blouse",
      "brand": "Zara",
      "imageUrl": "https://static.zara.net/photos///2019/V/0/1/p/3510/022/052/2/w/1024/3510022052_2_4_1.jpg?ts=1550658399126",
      "price": "40",
      "information": "t-shirt",
      "color":"white",
      "sellerId":"xxx",
      "size": "S",
      "gender": "female"
    },
    {
      "name": "Blouse",
      "brand": "Zara",
      "imageUrl": "https://static.zara.net/photos///2019/V/0/1/p/8372/031/800/2/w/1920/8372031800_9_2_1.jpg?ts=1553768874189",
      "price": "50",
      "information": "t-shirt",
      "color":"black",
      "sellerId":"xxx",
      "size": "XS",
      "gender": "female"
    },
    {
      "name": "Blouse",
      "brand": "Zara",
      "imageUrl": "https://static.zara.net/photos///2019/V/0/1/p/4437/086/400/2/w/1024/4437086400_2_1_1.jpg?ts=1554285508852",
      "price": "45",
      "information": "t-shirt",
      "color":"blue",
      "sellerId":"xxx",
      "size": "M",
      "gender": "female"
    },
    {
      "name": "Blouse",
      "brand": "Zara",
      "imageUrl": "https://static.zara.net/photos///2019/V/0/1/p/4387/056/712/2/w/1920/4387056712_9_2_1.jpg?ts=1553510422814",
      "price": "50",
      "information": "t-shirt",
      "color":"white",
      "sellerId":"xxx",
      "size": "L",
      "gender": "female"
    },
    {
      "name": "Blouse",
      "brand": "Zara",
      "imageUrl": "https://static.zara.net/photos///2019/V/0/1/p/2570/311/250/2/w/1024/2570311250_2_1_1.jpg?ts=1553704156197",
      "price": "55",
      "information": "t-shirt",
      "color":"white",
      "sellerId":"xxx",
      "size": "L",
      "gender": "female"
    },
    {
      "name": "Pants",
      "brand": "Mango",
      "imageUrl": "https://st.mngbcn.com/rcs/pics/static/T4/fotos/outfit/S20/43065810_99-99999999_01.jpg?ts=1551105214656&imwidth=243&imdensity=2",
      "price": "55",
      "information": "t-shirt",
      "color":"black",
      "sellerId":"xxx",
      "size": "M",
      "gender": "female"
    },
    {
      "name": "Pants",
      "brand": "Mango",
      "imageUrl": "https://st.mngbcn.com/rcs/pics/static/T4/fotos/outfit/S20/43097771_79-99999999_01.jpg?ts=1554831310804&imwidth=243&imdensity=2",
      "price": "65",
      "information": "t-shirt",
      "color":"red",
      "sellerId":"xxx",
      "size": "L",
      "gender": "female"
    },
    {
      "name": "Pants",
      "brand": "Mango",
      "imageUrl": "https://st.mngbcn.com/rcs/pics/static/T4/fotos/outfit/S20/41053748_08-99999999_01.jpg?ts=1549010027153&imwidth=243&imdensity=2",
      "price": "60",
      "information": "t-shirt",
      "color":"white",
      "sellerId":"xxx",
      "size": "M",
      "gender": "female"
    },
    {
      "name": "Pants",
      "brand": "Mango",
      "imageUrl": "https://st.mngbcn.com/rcs/pics/static/T4/fotos/outfit/S20/43047706_56-99999999_01.jpg?ts=1550241232956&imwidth=243&imdensity=2",
      "price": "55",
      "information": "t-shirt",
      "color":"blue",
      "sellerId":"xxx",
      "size": "M",
      "gender": "female"
    },
    {
      "name": "Pants",
      "brand": "Mango",
      "imageUrl": "https://st.mngbcn.com/rcs/pics/static/T4/fotos/outfit/S20/43099049_02-99999999_01.jpg?ts=1554129234434&imwidth=243&imdensity=2",
      "price": "60",
      "information": "t-shirt",
      "color":"white",
      "sellerId":"xxx",
      "size": "M",
      "gender": "female"
    },
    {
      "name": "Dress",
      "brand": "Mango",
      "imageUrl": "https://st.mngbcn.com/rcs/pics/static/T4/fotos/S20/43037785_87.jpg?ts=1557229445658&imwidth=243&imdensity=2",
      "price": "60",
      "information": "t-shirt",
      "color":"red",
      "sellerId":"xxx",
      "size": "M",
      "gender": "female"
    },
    {
      "name": "Dress",
      "brand": "Mango",
      "imageUrl": "https://st.mngbcn.com/rcs/pics/static/T4/fotos/outfit/S20/43008821_09-99999999_01.jpg?ts=1553107264153&imwidth=243&imdensity=2",
      "price": "60",
      "information": "t-shirt",
      "color":"cream",
      "sellerId":"xxx",
      "size": "S",
      "gender": "female"
    },
    {
      "name": "Dress",
      "brand": "Mango",
      "imageUrl": "https://st.mngbcn.com/rcs/pics/static/T4/fotos/outfit/S20/43017796_87-99999999_01.jpg?ts=1557412413112&imwidth=243&imdensity=2",
      "price": "60",
      "information": "t-shirt",
      "color":"red",
      "sellerId":"xxx",
      "size": "L",
      "gender": "female"
    },
    {
      "name": "Dress",
      "brand": "Mango",
      "imageUrl": "https://st.mngbcn.com/rcs/pics/static/T4/fotos/outfit/S20/43045738_37-99999999_01.jpg?ts=1551195231105&imwidth=243&imdensity=2",
      "price": "60",
      "information": "t-shirt",
      "color":"olive",
      "sellerId":"xxx",
      "size": "M",
      "gender": "female"
    },
    {
      "name": "Dress",
      "brand": "Mango",
      "imageUrl": "https://st.mngbcn.com/rcs/pics/static/T4/fotos/S20/41035759_99_D2.jpg?ts=1549301611368&imwidth=243&imdensity=2",
      "price": "60",
      "information": "t-shirt",
      "color":"black",
      "sellerId":"xxx",
      "size": "S",
      "gender": "female"
    },
    {
      "name": "Blouse",
      "brand": "Mango",
      "imageUrl": "https://st.mngbcn.com/rcs/pics/static/T4/fotos/S20/43078822_02.jpg?ts=1554287604140&imwidth=243&imdensity=2",
      "price": "35",
      "information": "t-shirt",
      "color":"white",
      "sellerId":"xxx",
      "size": "S",
      "gender": "female"
    },
    {
      "name": "Blouse",
      "brand": "Mango",
      "imageUrl": "https://st.mngbcn.com/rcs/pics/static/T4/fotos/S20/43067753_70.jpg?ts=1553157202933&imwidth=243&imdensity=2",
      "price": "35",
      "information": "t-shirt",
      "color":"red",
      "sellerId":"xxx",
      "size": "XS",
      "gender": "female"
    },
    {
      "name": "Blouse",
      "brand": "Mango",
      "imageUrl": "https://st.mngbcn.com/rcs/pics/static/T4/fotos/S20/43027811_14.jpg?ts=1554742078609&imwidth=243&imdensity=2",
      "price": "45",
      "information": "t-shirt",
      "color":"yellow",
      "sellerId":"xxx",
      "size": "M",
      "gender": "female"
    },
    {
      "name": "Blouse",
      "brand": "Mango",
      "imageUrl": "https://st.mngbcn.com/rcs/pics/static/T4/fotos/S20/43047799_73_D1.jpg?ts=1553009604204&imwidth=243&imdensity=2",
      "price": "40",
      "information": "t-shirt",
      "color":"rose",
      "sellerId":"xxx",
      "size": "L",
      "gender": "female"
    },
    {
      "name": "Blouse",
      "brand": "Mango",
      "imageUrl": "https://st.mngbcn.com/rcs/pics/static/T4/fotos/S20/43077038_05.jpg?ts=1553535504564&imwidth=243&imdensity=2",
      "price": "30",
      "information": "t-shirt",
      "color":"cream",
      "sellerId":"xxx",
      "size": "L",
      "gender": "female"
    },
    {
      "name": "Pants",
      "brand": "Koton",
      "imageUrl": "https://ktnimg.mncdn.com/mnresize/829/1088/product-images/9YAK42696UW550/1500Wx1969H/9YAK42696UW550_G01_zoom1_V02.jpg",
      "price": "35",
      "information": "t-shirt",
      "color":"orange",
      "sellerId":"xxx",
      "size": "M",
      "gender": "female"
    },
    {
      "name": "Pants",
      "brand": "Koton",
      "imageUrl": "https://ktnimg.mncdn.com/mnresize/829/1088/product-images/9YAK48369CWE30/1500Wx1969H/9YAK48369CWE30_G01_zoom1_V02.jpg",
      "price": "25",
      "information": "t-shirt",
      "color":"blue",
      "sellerId":"xxx",
      "size": "L",
      "gender": "female"
    },
    {
      "name": "Pants",
      "brand": "Koton",
      "imageUrl": "https://ktnimg.mncdn.com/mnresize/829/1088/product-images/9YAK42141OW01A/1500Wx1969H/9YAK42141OW01A_G01_zoom1_V02.jpg",
      "price": "30",
      "information": "t-shirt",
      "color":"blue",
      "sellerId":"xxx",
      "size": "S",
      "gender": "female"
    },
    {
      "name": "Pants",
      "brand": "Koton",
      "imageUrl": "https://ktnimg.mncdn.com/mnresize/829/1088/product-images/9YAL49353IW267/1500Wx1969H/9YAL49353IW267_G01_zoom1_V02.jpg",
      "price": "25",
      "information": "t-shirt",
      "color":"pink",
      "sellerId":"xxx",
      "size": "M",
      "gender": "female"
    },
    {
      "name": "Pants",
      "brand": "Koton",
      "imageUrl": "https://ktnimg.mncdn.com/mnresize/829/1088/product-images/9YAF40422GW027/1500Wx1969H/9YAF40422GW027_G01_zoom1_V03.jpg",
      "price": "30",
      "information": "t-shirt",
      "color":"black",
      "sellerId":"xxx",
      "size": "M",
      "gender": "female"
    }, 
    {
      "name": "Dress",
      "brand": "Koton",
      "imageUrl": "https://ktnimg.mncdn.com/mnresize/829/1088/product-images/9YAL88275IW01K/1500Wx1969H/9YAL88275IW01K_G01_zoom1_V01.jpg",
      "price": "50",
      "information": "t-shirt",
      "color":"blue",
      "sellerId":"xxx",
      "size": "M",
      "gender": "female"
    },
    {
      "name": "Dress",
      "brand": "Koton",
      "imageUrl": "https://ktnimg.mncdn.com/mnresize/829/1088/product-images/9YAK83304EW01C/1500Wx1969H/9YAK83304EW01C_G01_zoom1_V01.jpg",
      "price": "45",
      "information": "t-shirt",
      "color":"mixed",
      "sellerId":"xxx",
      "size": "S",
      "gender": "female"
    },
    {
      "name": "Dress",
      "brand": "Koton",
      "imageUrl": "https://ktnimg.mncdn.com/mnresize/829/1088/product-images/9YAF80978GW412/1500Wx1969H/9YAF80978GW412_G01_zoom1_V02.jpg",
      "price": "55",
      "information": "t-shirt",
      "color":"red",
      "sellerId":"xxx",
      "size": "L",
      "gender": "female"
    },
    {
      "name": "Dress",
      "brand": "Koton",
      "imageUrl": "https://ktnimg.mncdn.com/mnresize/829/1088/product-images/9YAF80825FW801/1500Wx1969H/9YAF80825FW801_G01_zoom1_V01.jpg",
      "price": "40",
      "information": "t-shirt",
      "color":"green",
      "sellerId":"xxx",
      "size": "M",
      "gender": "female"
    },
    {
      "name": "Dress",
      "brand": "Koton",
      "imageUrl": "https://ktnimg.mncdn.com/mnresize/829/1088/product-images/9YAK88156PW886/1500Wx1969H/9YAK88156PW886_G01_zoom1_V01.jpg",
      "price": "40",
      "information": "t-shirt",
      "color":"green",
      "sellerId":"xxx",
      "size": "S",
      "gender": "female"
    },
    {
      "name": "Blouse",
      "brand": "Koton",
      "imageUrl": "https://ktnimg.mncdn.com/mnresize/829/1088/product-images/9YAK66732IWTRC/1500Wx1969H/9YAK66732IWTRC_G01_zoom1_V04.jpg",
      "price": "20",
      "information": "t-shirt",
      "color":"red",
      "sellerId":"xxx",
      "size": "S",
      "gender": "female"
    },
    {
      "name": "Blouse",
      "brand": "Koton",
      "imageUrl": "https://ktnimg.mncdn.com/mnresize/829/1088/product-images/9YAK68246CW989/1500Wx1969H/9YAK68246CW989_G01_zoom1_V02.jpg",
      "price": "15",
      "information": "t-shirt",
      "color":"green",
      "sellerId":"xxx",
      "size": "XS",
      "gender": "female"
    },
    {
      "name": "Blouse",
      "brand": "Koton",
      "imageUrl": "https://ktnimg.mncdn.com/mnresize/829/1088/product-images/9YAK68461PWJ59/1500Wx1969H/9YAK68461PWJ59_G01_zoom1_V01.jpg",
      "price": "20",
      "information": "t-shirt",
      "color":"yellow",
      "sellerId":"xxx",
      "size": "M",
      "gender": "female"
    },
    {
      "name": "Blouse",
      "brand": "Koton",
      "imageUrl": "https://ktnimg.mncdn.com/mnresize/829/1088/product-images/9YAK68494PW272/1500Wx1969H/9YAK68494PW272_G01_zoom1_V02.jpg",
      "price": "15",
      "information": "t-shirt",
      "color":"pink",
      "sellerId":"xxx",
      "size": "M",
      "gender": "female"
    },
    {
      "name": "Blouse",
      "brand": "Koton",
      "imageUrl": "https://ktnimg.mncdn.com/mnresize/829/1088/product-images/9YAK34135FK050/1500Wx1969H/9YAK34135FK050_G01_zoom1_V01.jpg",
      "price": "20",
      "information": "t-shirt",
      "color":"cream",
      "sellerId":"xxx",
      "size": "L",
      "gender": "female"
    },
    {
      "name": "Pants",
      "brand": "Zara",
      "imageUrl": "https://static.zara.net/photos///2019/V/0/2/p/0706/596/401/2/w/1024/0706596401_2_1_1.jpg?ts=1557497772674",
      "price": "75",
      "information": "t-shirt",
      "color":"navy blue",
      "sellerId":"xxx",
      "size": "L",
      "gender": "male"
    },
    {
      "name": "Pants",
      "brand": "Zara",
      "imageUrl": "https://static.zara.net/photos///2019/V/0/2/p/1792/405/707/3/w/1024/1792405707_2_1_1.jpg?ts=1555423445207",
      "price": "65",
      "information": "t-shirt",
      "color":"cream",
      "sellerId":"xxx",
      "size": "L",
      "gender": "male"
    },
    {
      "name": "Pants",
      "brand": "Zara",
      "imageUrl": "https://static.zara.net/photos///2019/V/0/2/p/9621/455/420/2/w/1024/9621455420_2_1_1.jpg?ts=1550074410167",
      "price": "75",
      "information": "t-shirt",
      "color":"navy blue",
      "sellerId":"xxx",
      "size": "M",
      "gender": "male"
    },
    {
      "name": "Pants",
      "brand": "Zara",
      "imageUrl": "https://static.zara.net/photos///2019/V/0/2/p/6861/410/403/2/w/1024/6861410403_2_1_1.jpg?ts=1553772852897",
      "price": "70",
      "information": "t-shirt",
      "color":"grey",
      "sellerId":"xxx",
      "size": "S",
      "gender": "male"
    },
    {
      "name": "Pants",
      "brand": "Zara",
      "imageUrl": "https://static.zara.net/photos///2019/V/0/2/p/0693/441/806/2/w/1024/0693441806_2_1_1.jpg?ts=1555316454245",
      "price": "60",
      "information": "t-shirt",
      "color":"cream",
      "sellerId":"xxx",
      "size": "XL",
      "gender": "male"
    },
    {
      "name": "Shirt",
      "brand": "Zara",
      "imageUrl": "https://static.zara.net/photos///2019/V/0/2/p/0387/400/614/2/w/1024/0387400614_2_1_1.jpg?ts=1556892999318",
      "price": "40",
      "information": "t-shirt",
      "color":"orange",
      "sellerId":"xxx",
      "size": "M",
      "gender": "male"
    },
    {
      "name": "Shirt",
      "brand": "Zara",
      "imageUrl": "https://static.zara.net/photos///2019/V/0/2/p/3182/300/403/2/w/1024/3182300403_2_1_1.jpg?ts=1556870727370",
      "price": "50",
      "information": "t-shirt",
      "color":"blue",
      "sellerId":"xxx",
      "size": "M",
      "gender": "male"
    },
    {
      "name": "Shirt",
      "brand": "Zara",
      "imageUrl": "https://static.zara.net/photos///2019/V/0/2/p/7545/393/405/3/w/1024/7545393405_2_1_1.jpg?ts=1553182163598",
      "price": "45",
      "information": "t-shirt",
      "color":"blue",
      "sellerId":"xxx",
      "size": "S",
      "gender": "male"
    },
    {
      "name": "Shirt",
      "brand": "Zara",
      "imageUrl": "https://static.zara.net/photos///2019/V/0/2/p/8211/308/052/3/w/1024/8211308052_2_1_1.jpg?ts=1555523175042",
      "price": "50",
      "information": "t-shirt",
      "color":"cream",
      "sellerId":"xxx",
      "size": "L",
      "gender": "male"
    },
    {
      "name": "Shirt",
      "brand": "Zara",
      "imageUrl": "https://static.zara.net/photos///2019/V/0/2/p/7545/399/250/2/w/1024/7545399250_2_1_1.jpg?ts=1555352930653",
      "price": "55",
      "information": "t-shirt",
      "color":"cream",
      "sellerId":"xxx",
      "size": "XL",
      "gender": "male"
    },
    {
      "name": "Jacket",
      "brand": "Zara",
      "imageUrl": "https://static.zara.net/photos///2019/V/0/2/p/4369/508/401/2/w/1024/4369508401_2_1_1.jpg?ts=1555087272162",
      "price": "120",
      "information": "t-shirt",
      "color":"navy blue",
      "sellerId":"xxx",
      "size": "XL",
      "gender": "male"
    },
    {
      "name": "Jacket",
      "brand": "Zara",
      "imageUrl": "https://static.zara.net/photos///2019/V/0/2/p/1564/428/800/3/w/1920/1564428800_9_1_1.jpg?ts=1556643674075",
      "price": "110",
      "information": "t-shirt",
      "color":"black",
      "sellerId":"xxx",
      "size": "M",
      "gender": "male"
    },
    {
      "name": "Jacket",
      "brand": "Zara",
      "imageUrl": "https://static.zara.net/photos///2019/V/0/2/p/1564/448/403/2/w/1024/1564448403_2_5_1.jpg?ts=1554228233447",
      "price": "100",
      "information": "t-shirt",
      "color":"blue",
      "sellerId":"xxx",
      "size": "M",
      "gender": "male"
    },
    {
      "name": "Jacket",
      "brand": "Zara",
      "imageUrl": "https://static.zara.net/photos///2019/V/0/2/p/1608/420/803/2/w/1024/1608420803_2_1_1.jpg?ts=1556786082193",
      "price": "105",
      "information": "t-shirt",
      "color":"grey",
      "sellerId":"xxx",
      "size": "S",
      "gender": "male"
    },
    {
      "name": "Jacket",
      "brand": "Zara",
      "imageUrl": "https://static.zara.net/photos///2019/V/0/2/p/9621/466/606/2/w/1024/9621466606_2_1_1.jpg?ts=1551272434503",
      "price": "100",
      "information": "t-shirt",
      "color":"red",
      "sellerId":"xxx",
      "size": "L",
      "gender": "male"
    },
    {
      "name": "Jacket",
      "brand": "Mango",
      "imageUrl": "https://st.mngbcn.com/rcs/pics/static/T4/fotos/outfit/S20/43030581_37-99999999_01.jpg?ts=1544527995637&imwidth=243&imdensity=2",
      "price": "90",
      "information": "t-shirt",
      "color":"green",
      "sellerId":"xxx",
      "size": "XL",
      "gender": "male"
    },
    {
      "name": "Jacket",
      "brand": "Mango",
      "imageUrl": "https://st.mngbcn.com/rcs/pics/static/T4/fotos/S20/43067720_35.jpg?ts=1554129234434&imwidth=243&imdensity=2",
      "price": "85",
      "information": "t-shirt",
      "color":"cream",
      "sellerId":"xxx",
      "size": "M",
      "gender": "male"
    },
    {
      "name": "Jacket",
      "brand": "Mango",
      "imageUrl": "https://st.mngbcn.com/rcs/pics/static/T4/fotos/S20/43043696_TO.jpg?ts=1552304443950&imwidth=243&imdensity=2",
      "price": "90",
      "information": "t-shirt",
      "color":"navy blue",
      "sellerId":"xxx",
      "size": "S",
      "gender": "male"
    },
    {
      "name": "Jacket",
      "brand": "Mango",
      "imageUrl": "https://st.mngbcn.com/rcs/pics/static/T4/fotos/S20/43057012_16.jpg?ts=1553513955160&imwidth=243&imdensity=2",
      "price": "80",
      "information": "t-shirt",
      "color":"light brown",
      "sellerId":"xxx",
      "size": "M",
      "gender": "male"
    },
    {
      "name": "Jacket",
      "brand": "Mango",
      "imageUrl": "https://st.mngbcn.com/rcs/pics/static/T4/fotos/S20/43070503_CG.jpg?ts=1541169190143&imwidth=243&imdensity=2",
      "price": "85",
      "information": "t-shirt",
      "color":"brown",
      "sellerId":"xxx",
      "size": "L",
      "gender": "male"
    },
    {
      "name": "Jacket",
      "brand": "Koton",
      "imageUrl": "https://ktnimg.mncdn.com/mnresize/854/1122/product-images/9YAM53030LD080/1500Wx1969H/9YAM53030LD080_G01_zoom1_V05.jpg",
      "price": "70",
      "information": "t-shirt",
      "color":"white",
      "sellerId":"xxx",
      "size": "M",
      "gender": "male"
    },
    {
      "name": "Jacket",
      "brand": "Koton",
      "imageUrl": "https://ktnimg.mncdn.com/mnresize/829/1088/product-images/9YAM53000LD999/1500Wx1969H/9YAM53000LD999_G01_zoom1_V02.jpg",
      "price": "60",
      "information": "t-shirt",
      "color":"black",
      "sellerId":"xxx",
      "size": "M",
      "gender": "male"
    },
    {
      "name": "Jacket",
      "brand": "Koton",
      "imageUrl": "https://ktnimg.mncdn.com/mnresize/829/1088/product-images/9YAM53905LD600/1500Wx1969H/9YAM53905LD600_G01_zoom1_V04.jpg",
      "price": "70",
      "information": "t-shirt",
      "color":"blue",
      "sellerId":"xxx",
      "size": "L",
      "gender": "male"
    },
    {
      "name": "Jacket",
      "brand": "Koton",
      "imageUrl": "https://ktnimg.mncdn.com/mnresize/829/1088/product-images/9KAM21123NW100/1500Wx1969H/9KAM21123NW100_G01_zoom1_V02.jpg",
      "price": "65",
      "information": "t-shirt",
      "color":"brown",
      "sellerId":"xxx",
      "size": "S",
      "gender": "male"
    },
    {
      "name": "Jacket",
      "brand": "Koton",
      "imageUrl": "https://ktnimg.mncdn.com/mnresize/829/1088/product-images/9KAM21130NW477/1500Wx1969H/9KAM21130NW477_G01_zoom1_V04.jpg",
      "price": "55",
      "information": "t-shirt",
      "color":"red",
      "sellerId":"xxx",
      "size": "XL",
      "gender": "male"
    },
    {
      "name": "Shirt",
      "brand": "Koton",
      "imageUrl": "https://ktnimg.mncdn.com/mnresize/829/1088/product-images/9YAM61610BW725/1500Wx1969H/9YAM61610BW725_G01_zoom1_V01.jpg",
      "price": "25",
      "information": "t-shirt",
      "color":"navy blue",
      "sellerId":"xxx",
      "size": "M",
      "gender": "male"
    },
    {
      "name": "Shirt",
      "brand": "Koton",
      "imageUrl": "https://ktnimg.mncdn.com/mnresize/829/1088/product-images/9YAM61828BW43V/1500Wx1969H/9YAM61828BW43V_G01_zoom1_V02.jpg",
      "price": "20",
      "information": "t-shirt",
      "color":"white",
      "sellerId":"xxx",
      "size": "L",
      "gender": "male"
    },
    {
      "name": "Shirt",
      "brand": "Koton",
      "imageUrl": "https://ktnimg.mncdn.com/mnresize/829/1088/product-images/9YAM69032VWE59/1500Wx1969H/9YAM69032VWE59_G01_zoom1_V02.jpg",
      "price": "15",
      "information": "t-shirt",
      "color":"grey",
      "sellerId":"xxx",
      "size": "S",
      "gender": "male"
    },
    {
      "name": "Shirt",
      "brand": "Koton",
      "imageUrl": "https://ktnimg.mncdn.com/mnresize/829/1088/product-images/9YAM61133BW847/1500Wx1969H/9YAM61133BW847_G01_zoom1_V01.jpg",
      "price": "20",
      "information": "t-shirt",
      "color":"green",
      "sellerId":"xxx",
      "size": "L",
      "gender": "male"
    },
    {
      "name": "Shirt",
      "brand": "Koton",
      "imageUrl": "https://ktnimg.mncdn.com/mnresize/829/1088/product-images/9YAM61367BW480/1500Wx1969H/9YAM61367BW480_G01_zoom1_V02.jpg",
      "price": "20",
      "information": "t-shirt",
      "color":"red",
      "sellerId":"xxx",
      "size": "XL",
      "gender": "male"
    },
    {
      "name": "Shirt",
      "brand": "Mango",
      "imageUrl": "https://st.mngbcn.com/rcs/pics/static/T5/fotos/S20/53030534_37.jpg?ts=1557927399545&imwidth=243&imdensity=2",
      "price": "40",
      "information": "t-shirt",
      "color":"green",
      "sellerId":"xxx",
      "size": "M",
      "gender": "male"
    },
    {
      "name": "Shirt",
      "brand": "Mango",
      "imageUrl": "https://st.mngbcn.com/rcs/pics/static/T5/fotos/S20/53030534_16.jpg?ts=1557138855749&imwidth=243&imdensity=2",
      "price": "35",
      "information": "t-shirt",
      "color":"orange",
      "sellerId":"xxx",
      "size": "M",
      "gender": "male"
    },
    {
      "name": "Shirt",
      "brand": "Mango",
      "imageUrl": "https://st.mngbcn.com/rcs/pics/static/T4/fotos/S20/43090603_TO.jpg?ts=1542271036989&imwidth=243&imdensity=2",
      "price": "30",
      "information": "t-shirt",
      "color":"navy blue",
      "sellerId":"xxx",
      "size": "S",
      "gender": "male"
    },
    {
      "name": "Shirt",
      "brand": "Mango",
      "imageUrl": "https://st.mngbcn.com/rcs/pics/static/T4/fotos/S20/43095729_37.jpg?ts=1548344609218&imwidth=243&imdensity=2",
      "price": "30",
      "information": "t-shirt",
      "color":"green",
      "sellerId":"xxx",
      "size": "L",
      "gender": "male"
    },
    {
      "name": "Shirt",
      "brand": "Mango",
      "imageUrl": "https://st.mngbcn.com/rcs/pics/static/T4/fotos/S20/43085725_52.jpg?ts=1550169659106&imwidth=243&imdensity=2",
      "price": "40",
      "information": "t-shirt",
      "color":"blue",
      "sellerId":"xxx",
      "size": "XL",
      "gender": "male"
    },
    {
      "name": "Pants",
      "brand": "Mango",
      "imageUrl": "https://st.mngbcn.com/rcs/pics/static/T4/fotos/S20/43065725_56.jpg?ts=1553178832328&imwidth=243&imdensity=2",
      "price": "65",
      "information": "t-shirt",
      "color":"navy blue",
      "sellerId":"xxx",
      "size": "XL",
      "gender": "male"
    },
    {
      "name": "Pants",
      "brand": "Mango",
      "imageUrl": "https://st.mngbcn.com/rcs/pics/static/T4/fotos/S20/43065726_37.jpg?ts=1553096312231&imwidth=243&imdensity=2",
      "price": "60",
      "information": "t-shirt",
      "color":"green",
      "sellerId":"xxx",
      "size": "L",
      "gender": "male"
    },
    {
      "name": "Pants",
      "brand": "Mango",
      "imageUrl": "https://st.mngbcn.com/rcs/pics/static/T4/fotos/S20/43047691_31.jpg?ts=1550169659106&imwidth=243&imdensity=2",
      "price": "65",
      "information": "t-shirt",
      "color":"brown",
      "sellerId":"xxx",
      "size": "M",
      "gender": "male"
    },
    {
      "name": "Pants",
      "brand": "Mango",
      "imageUrl": "https://st.mngbcn.com/rcs/pics/static/T4/fotos/S20/43057731_30.jpg?ts=1554125677927&imwidth=243&imdensity=2",
      "price": "55",
      "information": "t-shirt",
      "color":"cream",
      "sellerId":"xxx",
      "size": "S",
      "gender": "male"
    },
    {
      "name": "Pants",
      "brand": "Mango",
      "imageUrl": "https://st.mngbcn.com/rcs/pics/static/T4/fotos/S20/43065724_45.jpg?ts=1553178832328&imwidth=243&imdensity=2",
      "price": "70",
      "information": "t-shirt",
      "color":"blue",
      "sellerId":"xxx",
      "size": "L",
      "gender": "male"
    },
    {
      "name": "Pants",
      "brand": "Koton",
      "imageUrl": "https://ktnimg.mncdn.com/mnresize/829/1088/product-images/9YAM49100BW06A/1500Wx1969H/9YAM49100BW06A_G01_zoom1_V04.jpg",
      "price": "40",
      "information": "t-shirt",
      "color":"dark grey",
      "sellerId":"xxx",
      "size": "L",
      "gender": "male"
    },
    {
      "name": "Pants",
      "brand": "Koton",
      "imageUrl": "https://ktnimg.mncdn.com/mnresize/829/1088/product-images/9YAM42555NW600/1500Wx1969H/9YAM42555NW600_G01_zoom1_V01.jpg",
      "price": "30",
      "information": "t-shirt",
      "color":"blue",
      "sellerId":"xxx",
      "size": "M",
      "gender": "male"
    },
    {
      "name": "Pants",
      "brand": "Koton",
      "imageUrl": "https://ktnimg.mncdn.com/mnresize/829/1088/product-images/9YAM41145NW80W/1500Wx1969H/9YAM41145NW80W_G01_zoom1_V01.jpg",
      "price": "35",
      "information": "t-shirt",
      "color":"grey",
      "sellerId":"xxx",
      "size": "S",
      "gender": "male"
    },
    {
      "name": "Pants",
      "brand": "Koton",
      "imageUrl": "https://ktnimg.mncdn.com/mnresize/829/1088/product-images/9YAM41036NW84G/1500Wx1969H/9YAM41036NW84G_G01_zoom1_V04.jpg",
      "price": "40",
      "information": "t-shirt",
      "color":"navy blue",
      "sellerId":"xxx",
      "size": "L",
      "gender": "male"
    },
    {
      "name": "Pants",
      "brand": "Koton",
      "imageUrl": "https://ktnimg.mncdn.com/mnresize/829/1088/product-images/9YAM41299BW898/1500Wx1969H/9YAM41299BW898_G01_zoom1_V05.jpg",
      "price": "30",
      "information": "t-shirt",
      "color":"brown",
      "sellerId":"xxx",
      "size": "XL",
      "gender": "male"
    },
    {
      "name": "Dress",
      "brand": "Zara",
      "imageUrl": "https://static.zara.net/photos///2019/V/0/3/p/4152/619/400/2/w/1920/4152619400_1_1_1.jpg?ts=1557157707657",
      "price": "40",
      "information": "t-shirt",
      "color":"blue",
      "sellerId":"xxx",
      "size": "XS",
      "gender": "girl"
    },
    {
      "name": "T-shirt",
      "brand": "Zara",
      "imageUrl": "https://static.zara.net/photos///2019/V/0/3/p/5350/701/300/2/w/1920/5350701300_1_1_1.jpg?ts=1557483704332",
      "price": "30",
      "information": "t-shirt",
      "color":"white",
      "sellerId":"xxx",
      "size": "S",
      "gender": "girl"
    },
    {
      "name": "Jacket",
      "brand": "Zara",
      "imageUrl": "https://static.zara.net/photos///2019/V/0/3/p/4152/617/633/4/w/1920/4152617633_1_1_1.jpg?ts=1557736291591",
      "price": "35",
      "information": "t-shirt",
      "color":"pink",
      "sellerId":"xxx",
      "size": "M",
      "gender": "girl"
    },
    {
      "name": "Top",
      "brand": "Zara",
      "imageUrl": "https://static.zara.net/photos///2019/V/0/3/p/0219/609/250/2/w/1024/0219609250_2_9_1.jpg?ts=1557823444346",
      "price": "40",
      "information": "t-shirt",
      "color":"white",
      "sellerId":"xxx",
      "size": "L",
      "gender": "girl"
    },
    {
      "name": "Pants",
      "brand": "Zara",
      "imageUrl": "https://static.zara.net/photos///2019/V/0/3/p/4406/608/406/2/w/1920/4406608406_1_1_1.jpg?ts=1557160959957",
      "price": "30",
      "information": "t-shirt",
      "color":"blue",
      "sellerId":"xxx",
      "size": "M",
      "gender": "girl"
    },
    {
      "name": "T-shirt",
      "brand": "Zara",
      "imageUrl": "https://static.zara.net/photos///2019/V/0/3/p/4152/619/400/2/w/1920/4152619400_1_1_1.jpg?ts=1557157707657",
      "price": "40",
      "information": "t-shirt",
      "color":"blue",
      "sellerId":"xxx",
      "size": "M",
      "gender": "boy"
    },
    {
      "name": "Sweatshirt",
      "brand": "Zara",
      "imageUrl": "https://static.zara.net/photos///2019/V/0/3/p/5350/701/300/2/w/1920/5350701300_1_1_1.jpg?ts=1557483704332",
      "price": "30",
      "information": "t-shirt",
      "color":"white",
      "sellerId":"xxx",
      "size": "S",
      "gender": "boy"
    },
    {
      "name": "Sweatshirt",
      "brand": "Zara",
      "imageUrl": "https://static.zara.net/photos///2019/V/0/3/p/4152/617/633/4/w/1920/4152617633_1_1_1.jpg?ts=1557736291591",
      "price": "35",
      "information": "t-shirt",
      "color":"blue",
      "sellerId":"xxx",
      "size": "L",
      "gender": "boy"
    },
    {
      "name": "Shorts",
      "brand": "Zara",
      "imageUrl": "https://static.zara.net/photos///2019/V/0/3/p/0219/609/250/2/w/1024/0219609250_2_9_1.jpg?ts=1557823444346",
      "price": "40",
      "information": "t-shirt",
      "color":"red",
      "sellerId":"xxx",
      "size": "L",
      "gender": "boy"
    },
    {
      "name": "T-shirt",
      "brand": "Zara",
      "imageUrl": "https://static.zara.net/photos///2019/V/0/3/p/4406/608/406/2/w/1920/4406608406_1_1_1.jpg?ts=1557160959957",
      "price": "30",
      "information": "t-shirt",
      "color":"mixed",
      "sellerId":"xxx",
      "size": "M",
      "gender": "boy"
    },
    {
      "name": "Dress",
      "brand": "Zara",
      "imageUrl": "https://static.zara.net/photos///2019/V/0/3/p/4152/619/400/2/w/1920/4152619400_1_1_1.jpg?ts=1557157707657",
      "price": "40",
      "information": "t-shirt",
      "color":"blue",
      "sellerId":"xxx",
      "size": "XS",
      "gender": "baby"
    },
    {
      "name": "T-shirt",
      "brand": "Zara",
      "imageUrl": "https://static.zara.net/photos///2019/V/0/3/p/5350/701/300/2/w/1920/5350701300_1_1_1.jpg?ts=1557483704332",
      "price": "30",
      "information": "t-shirt",
      "color":"white",
      "sellerId":"xxx",
      "size": "S",
      "gender": "baby"
    },
    {
      "name": "Jacket",
      "brand": "Zara",
      "imageUrl": "https://static.zara.net/photos///2019/V/0/3/p/4152/617/633/4/w/1920/4152617633_1_1_1.jpg?ts=1557736291591",
      "price": "35",
      "information": "t-shirt",
      "color":"pink",
      "sellerId":"xxx",
      "size": "M",
      "gender": "baby"
    },
    {
      "name": "Top",
      "brand": "Zara",
      "imageUrl": "https://static.zara.net/photos///2019/V/0/3/p/0219/609/250/2/w/1024/0219609250_2_9_1.jpg?ts=1557823444346",
      "price": "40",
      "information": "t-shirt",
      "color":"white",
      "sellerId":"xxx",
      "size": "L",
      "gender": "baby"
    },
    {
      "name": "Pants",
      "brand": "Zara",
      "imageUrl": "https://static.zara.net/photos///2019/V/0/3/p/4406/608/406/2/w/1920/4406608406_1_1_1.jpg?ts=1557160959957",
      "price": "30",
      "information": "t-shirt",
      "color":"blue",
      "sellerId":"xxx",
      "size": "M",
      "gender": "baby"
    },
    {
      "name": "T-shirt",
      "brand": "Mango",
      "imageUrl": "https://st.mngbcn.com/rcs/pics/static/T4/fotos/S20/43018836_01_D5.jpg?ts=1556552045876&imwidth=400&imdensity=2",
      "price": "40",
      "information": "t-shirt",
      "color":"white",
      "sellerId":"xxx",
      "size": "XS",
      "gender": "girl"
    },
    {
      "name": "Dress",
      "brand": "Mango",
      "imageUrl": "https://st.mngbcn.com/rcs/pics/static/T4/fotos/S20/43018833_01_B.jpg?ts=1554719975140&imwidth=400&imdensity=2",
      "price": "30",
      "information": "t-shirt",
      "color":"white",
      "sellerId":"xxx",
      "size": "S",
      "gender": "girl"
    },
    {
      "name": "Shorts",
      "brand": "Mango",
      "imageUrl": "https://st.mngbcn.com/rcs/pics/static/T4/fotos/outfit/S6/A2/43068826_01-99999999_01.jpg?ts=1556552045876&imwidth=817&imdensity=2",
      "price": "35",
      "information": "t-shirt",
      "color":"white",
      "sellerId":"xxx",
      "size": "M",
      "gender": "girl"
    },
    {
      "name": "Dress",
      "brand": "Mango",
      "imageUrl": "https://st.mngbcn.com/rcs/pics/static/T4/fotos/outfit/S6/A2/43028828_28-99999999_01.jpg?ts=1556552045876&imwidth=817&imdensity=2",
      "price": "40",
      "information": "t-shirt",
      "color":"red",
      "sellerId":"xxx",
      "size": "L",
      "gender": "girl"
    },
    {
      "name": "Skirt",
      "brand": "Mango",
      "imageUrl": "https://st.mngbcn.com/rcs/pics/static/T4/fotos/S20/43078825_28_B.jpg?ts=1554719975140&imwidth=400&imdensity=2",
      "price": "30",
      "information": "t-shirt",
      "color":"red",
      "sellerId":"xxx",
      "size": "M",
      "gender": "girl"
    },
    {
      "name": "T-shirt",
      "brand": "Koton",
      "imageUrl": "https://ktnimg.mncdn.com/mnresize/829/1088/product-images/9YKG17908AK402/1500Wx1969H/9YKG17908AK402_G01_zoom1_V01.jpg",
      "price": "40",
      "information": "t-shirt",
      "color":"pink",
      "sellerId":"xxx",
      "size": "XS",
      "gender": "girl"
    },
    {
      "name": "Blouse",
      "brand": "Koton",
      "imageUrl": "https://ktnimg.mncdn.com/mnresize/829/1088/product-images/9YKG17668AK400/1500Wx1969H/9YKG17668AK400_G01_zoom1_V01.jpg",
      "price": "30",
      "information": "t-shirt",
      "color":"orange",
      "sellerId":"xxx",
      "size": "S",
      "gender": "girl"
    },
    {
      "name": "Dress",
      "brand": "Koton",
      "imageUrl": "https://ktnimg.mncdn.com/mnresize/829/1088/product-images/9YKG87930OK000/1500Wx1969H/9YKG87930OK000_G01_zoom1_V01.jpg",
      "price": "35",
      "information": "t-shirt",
      "color":"white",
      "sellerId":"xxx",
      "size": "M",
      "gender": "girl"
    },
    {
      "name": "Dress",
      "brand": "Koton",
      "imageUrl": "https://ktnimg.mncdn.com/mnresize/829/1088/product-images/9YKG87028OW400/1500Wx1969H/9YKG87028OW400_G01_zoom1_V01.jpg",
      "price": "40",
      "information": "t-shirt",
      "color":"red",
      "sellerId":"xxx",
      "size": "L",
      "gender": "girl"
    },
    {
      "name": "Pants",
      "brand": "Koton",
      "imageUrl": "https://ktnimg.mncdn.com/mnresize/829/1088/product-images/9YKG47663AKNA1/1500Wx1969H/9YKG47663AKNA1_G01_zoom1_V01.jpg",
      "price": "30",
      "information": "t-shirt",
      "color":"black",
      "sellerId":"xxx",
      "size": "M",
      "gender": "girl"
    },
    {
      "name": "Shorts",
      "brand": "Mango",
      "imageUrl": "https://st.mngbcn.com/rcs/pics/static/T4/fotos/S20/43095008_50_B.jpg?ts=1548840813009&imwidth=400&imdensity=2",
      "price": "40",
      "information": "t-shirt",
      "color":"blue",
      "sellerId":"xxx",
      "size": "M",
      "gender": "boy"
    },
    {
      "name": "T-shirt",
      "brand": "Mango",
      "imageUrl": "https://st.mngbcn.com/rcs/pics/static/T4/fotos/S20/43007834_01_B.jpg?ts=1554918002108&imwidth=400&imdensity=2",
      "price": "30",
      "information": "t-shirt",
      "color":"white",
      "sellerId":"xxx",
      "size": "S",
      "gender": "boy"
    },
    {
      "name": "Shorts",
      "brand": "Mango",
      "imageUrl": "https://st.mngbcn.com/rcs/pics/static/T4/fotos/S20/43060696_92_B.jpg?ts=1542890272684&imwidth=400&imdensity=2",
      "price": "35",
      "information": "t-shirt",
      "color":"mixed",
      "sellerId":"xxx",
      "size": "L",
      "gender": "boy"
    },
    {
      "name": "Blouse",
      "brand": "Mango",
      "imageUrl": "https://st.mngbcn.com/rcs/pics/static/T4/fotos/S20/43063029_02_B.jpg?ts=1547634821239&imwidth=400&imdensity=2",
      "price": "40",
      "information": "t-shirt",
      "color":"white",
      "sellerId":"xxx",
      "size": "L",
      "gender": "boy"
    },
    {
      "name": "T-shirt",
      "brand": "Mango",
      "imageUrl": "https://st.mngbcn.com/rcs/pics/static/T4/fotos/S20/43039081_94_B.jpg?ts=1557767482935&imwidth=480&imdensity=2",
      "price": "30",
      "information": "t-shirt",
      "color":"white",
      "sellerId":"xxx",
      "size": "M",
      "gender": "boy"
    },
    {
      "name": "T-shirt",
      "brand": "Koton",
      "imageUrl": "https://ktnimg.mncdn.com/mnresize/854/1122/product-images/9YKB16855TK665/1500Wx1969H/9YKB16855TK665_G01_zoom1_V02.jpg",
      "price": "40",
      "information": "t-shirt",
      "color":"blue",
      "sellerId":"xxx",
      "size": "M",
      "gender": "boy"
    },
    {
      "name": "Pants",
      "brand": "Koton",
      "imageUrl": "https://ktnimg.mncdn.com/mnresize/829/1088/product-images/9YKB46405OWNA1/1500Wx1969H/9YKB46405OWNA1_G01_zoom1_V02.jpg",
      "price": "30",
      "information": "t-shirt",
      "color":"navy blue",
      "sellerId":"xxx",
      "size": "S",
      "gender": "boy"
    },
    {
      "name": "Shirt",
      "brand": "Koton",
      "imageUrl": "https://ktnimg.mncdn.com/mnresize/829/1088/product-images/9YKB66082OW03V/1500Wx1969H/9YKB66082OW03V_G01_zoom1_V04.jpg",
      "price": "35",
      "information": "t-shirt",
      "color":"blue",
      "sellerId":"xxx",
      "size": "L",
      "gender": "boy"
    },
    {
      "name": "Shorts",
      "brand": "Koton",
      "imageUrl": "https://ktnimg.mncdn.com/mnresize/829/1088/product-images/9YKB46486OW000/1500Wx1969H/9YKB46486OW000_G01_zoom1_V01.jpg",
      "price": "40",
      "information": "t-shirt",
      "color":"white",
      "sellerId":"xxx",
      "size": "L",
      "gender": "boy"
    },
    {
      "name": "T-shirt",
      "brand": "Koton",
      "imageUrl": "https://ktnimg.mncdn.com/mnresize/829/1088/product-images/9YKB16767OK420/1500Wx1969H/9YKB16767OK420_G01_zoom1_V01.jpg",
      "price": "30",
      "information": "t-shirt",
      "color":"red",
      "sellerId":"xxx",
      "size": "M",
      "gender": "boy"
    }
  ]